{
	"additionalNodes": [],
	"additionalParameters": {
		"root": {
			"height": 128,
			"width": 246
		}
	},
	"inputs": [ {
		"command": "Variable",
		"name": "buildMap"
	}, {
		"command": "Variable",
		"name": "buildingName"
	} ],
	"outputs": [],
	"properties": {
		"0zBzYVSbSlAlz5EZcx7JH4GyQG2Op2HN": {
			"height": 95,
			"title": "Common.build",
			"width": 197,
			"x": 465,
			"y": 48
		},
		"57BeTrvIyOICE3HgsPKJr7RgvSPlnR33": {
			"height": 94,
			"title": "store",
			"width": 395,
			"x": 466,
			"y": -57
		},
		"oyeOuXpLcWg4H2OvPEj3zpy0TlpvnuSp": {
			"height": 60,
			"title": "sequence",
			"width": 143,
			"x": 280,
			"y": 24
		}
	},
	"roles": [ {
		"categories": [],
		"name": "Role 0"
	} ],
	"root": {
		"children": [ {
			"children": [],
			"id": "57BeTrvIyOICE3HgsPKJr7RgvSPlnR33",
			"nodeType": "luaCommand",
			"parameters": [ {
				"name": "var",
				"value": "newSpot"
			}, {
				"name": "value",
				"value": "map.BuildSpotByScore(buildMap, buildingName)"
			}, {
				"name": "scriptName",
				"value": "store"
			} ],
			"scriptName": "store"
		}, {
			"children": [],
			"id": "0zBzYVSbSlAlz5EZcx7JH4GyQG2Op2HN",
			"nodeType": "luaCommand",
			"parameters": [ {
				"name": "pos",
				"value": "newSpot.position"
			}, {
				"name": "building",
				"value": "buildingName"
			}, {
				"name": "scriptName",
				"value": "Common.build"
			} ],
			"scriptName": "Common.build"
		} ],
		"id": "oyeOuXpLcWg4H2OvPEj3zpy0TlpvnuSp",
		"nodeType": "sequence",
		"parameters": []
	}
}